{
"driver":"mongoose"
,"exported":1416336164783
,"pk":"_id"
,"model":"SalesTax"
,"collection":"cart_salestaxrate"
,"data": [
    {"_id":"53d7be99e4b09bb0e7b026fa","state":"IL","rate":0.0625,"model":"SalesTax"},
    {"_id":"53d7beb4e4b09bb0e7b026fb","state":"MI","rate":0.06,"model":"SalesTax"}
] }